-------------------------------------------------------------------------------
Test set: br.com.dbc.floricultura.ws.ProdutoWSTest
-------------------------------------------------------------------------------
Tests run: 1, Failures: 0, Errors: 0, Skipped: 0, Time elapsed: 0.432 sec
